{"photos":{"page":1,"pages":12162,"perpage":10,"total":121617,"photo":[{"id":"52227519687","owner":"162063214@N07","secret":"3ff44bd0fa","server":"65535","farm":66,"title":"Your time is limited, so don't waste it living someone else's life. Don't be trapped by dogma \u2013 which is living with the results of other people's thinking - Steve Jobs","ispublic":1,"isfriend":0,"isfamily":0},{"id":"52227362512","owner":"148179219@N03","secret":"819f7446fd","server":"65535","farm":66,"title":"poedie 2 (148)","ispublic":1,"isfriend":0,"isfamily":0},{"id":"52227298042","owner":"138837019@N04","secret":"48410c7fca","server":"65535","farm":66,"title":"together","ispublic":1,"isfriend":0,"isfamily":0},{"id":"52228457634","owner":"82329524@N00","secret":"7afb0313e0","server":"65535","farm":66,"title":"The Snake","ispublic":1,"isfriend":0,"isfamily":0},{"id":"52227169602","owner":"10324005@N06","secret":"4eebef932b","server":"65535","farm":66,"title":"July 19, 2022, Tuesday","ispublic":1,"isfriend":0,"isfamily":0},{"id":"52227851198","owner":"196092919@N04","secret":"30842f6bdc","server":"0","farm":0,"title":"kittens","ispublic":1,"isfriend":0,"isfamily":0},{"id":"52228168405","owner":"146832497@N05","secret":"600ca428a5","server":"65535","farm":66,"title":"Our new cat, Kill Kitty!","ispublic":1,"isfriend":0,"isfamily":0},{"id":"52228143110","owner":"31452734@N03","secret":"78706c8609","server":"65535","farm":66,"title":"Kitten A50623518","ispublic":1,"isfriend":0,"isfamily":0},{"id":"52227672998","owner":"31452734@N03","secret":"bc813be03e","server":"65535","farm":66,"title":"Kitten A50623518 7 (2)","ispublic":1,"isfriend":0,"isfamily":0},{"id":"52227659721","owner":"31452734@N03","secret":"6384d02948","server":"65535","farm":66,"title":"Kitten A50623518 10","ispublic":1,"isfriend":0,"isfamily":0}]},"stat":"ok"}